LDA: 4321 | Code and Stats
…
We only expect to see misinterpretations in Storyline-1 and Storyline-4.
By comparing the title (true chapter) with the consensus (classified
chapter) we can spot differences.

mistakes = assignments %>%
  filter(title != consensus)

mistakes = mistakes %>%
    count(title, consensus, term, wt = count) %>%
    ungroup() %>%
    arrange(desc(n))

mistakes

## # A tibble: 14,714 x 4
##    title       consensus   term         n
##    <chr>       <chr>       <chr>    <dbl>
##  1 Storyline-1 Storyline-2 ferguson   278
##  2 Storyline-4 Storyline-1 ferguson   221
##  3 Storyline-1 Storyline-3 ferguson   190
##  4 Storyline-4 Storyline-2 ferguson   164
##  5 Storyline-1 Storyline-2 amy         95
##  6 Storyline-1 Storyline-3 mother      80
##  7 Storyline-1 Storyline-2 mother      71
##  8 Storyline-4 Storyline-2 mother      66
##  9 Storyline-1 Storyline-2 father      64
## 10 Storyline-4 Storyline-1 father      62
## # … with 14,704 more rows
…
